{
    "owner": "koverstreet",
    "repo": "bcachefs-tools",
    "rev": "99caca2c70f312c4a2504a7e7a9c92a91426d885",
    "sha256": "9bFTBFkQq8SvhYa9K4+MH2zvKZviNaq0sFWoeGgch7g=",
    "fetchSubmodules": false,
    "leaveDotGit": false,
    "deepClone": false
}